Cyclistic Case Study
…
To do this, I created a tibble summarizing the total rides for each
rider type over the last year.

I then visualized the data using a line graph to track changes in
total rides over time.

Code Chunk 3-2-1-1:

cyclistic_total_rides_by_month <- cyclistic %>%
  group_by(month, member_casual) %>%
  summarize(total_rides = sum(ride_count), .groups = "drop")

print(cyclistic_total_rides_by_month)

## # A tibble: 24 × 3
##    month         member_casual total_rides
##    <fct>         <fct>               <int>
##  1 November 2023 member             199132
##  2 November 2023 casual              71067
##  3 December 2023 member             127876
##  4 December 2023 casual              36155
##  5 January 2024  member              93550
##  6 January 2024  casual              17373
##  7 February 2024 member             144471
##  8 February 2024 casual              37619
##  9 March 2024    member             164709
## 10 March 2024    casual              61805
## # ℹ 14 more rows
…
Code Chunk 3-2-2-1:

cyclistic_total_rides_by_month_delta <- cyclistic %>%
  group_by(month, member_casual) %>%
  summarize(total_rides = sum(ride_count), .groups = "drop") %>%
  group_by(member_casual) %>%
  mutate(delta_rides = total_rides - lag(total_rides)) %>% 
  filter(!is.na(delta_rides))

print(cyclistic_total_rides_by_month_delta)

## # A tibble: 22 × 4
## # Groups:   member_casual [2]
##    month         member_casual total_rides delta_rides
##    <fct>         <fct>               <int>       <int>
##  1 December 2023 member             127876      -71256
##  2 December 2023 casual              36155      -34912
##  3 January 2024  member              93550      -34326
##  4 January 2024  casual              17373      -18782
##  5 February 2024 member             144471       50921
##  6 February 2024 casual              37619       20246
##  7 March 2024    member             164709       20238
##  8 March 2024    casual              61805       24186
##  9 April 2024    member             200342       35633
## 10 April 2024    casual              92244       30439
## # ℹ 12 more rows
…
Code Chunk 3-2-3-1:

cyclistic_total_rides_per_day_by_month <- cyclistic %>%
  group_by(member_casual, month, day_of_week) %>%
  summarize(total_rides = sum(ride_count), .groups = "drop") %>%
  group_by(month, member_casual) %>%
  mutate(busiest_day_of_month = ifelse(total_rides == max(total_rides), TRUE, FALSE)) %>%
  ungroup()

print(cyclistic_total_rides_per_day_by_month)

## # A tibble: 168 × 5
##    member_casual month         day_of_week total_rides busiest_day_of_month
##    <fct>         <fct>         <fct>             <int> <lgl>               
##  1 member        November 2023 1                 19119 FALSE               
##  2 member        November 2023 2                 28397 FALSE               
##  3 member        November 2023 3                 29378 FALSE               
##  4 member        November 2023 4                 36403 FALSE               
##  5 member        November 2023 5                 38324 TRUE                
##  6 member        November 2023 6                 25201 FALSE               
##  7 member        November 2023 7                 22310 FALSE               
##  8 member        December 2023 1                 13245 FALSE               
##  9 member        December 2023 2                 16514 FALSE               
## 10 member        December 2023 3                 17542 FALSE               
## # ℹ 158 more rows
…
3-2-6: Total Rides per Time of Day

Next, I analyzed total rides by rider type across seven time-of-day
segments for each of the last 12 months.

Code Chunk 3-2-6-1:

cyclistic_total_rides_per_time_of_day_by_month <- cyclistic %>%
  group_by(member_casual, month, time_of_day) %>%
  summarize(total_rides = sum(ride_count), .groups = "drop") %>%
  ungroup()

print(cyclistic_total_rides_per_time_of_day_by_month)

## # A tibble: 168 × 4
##    member_casual month         time_of_day        total_rides
##    <fct>         <fct>         <fct>                    <int>
##  1 member        November 2023 6:00 AM - 8:59 AM        33592
##  2 member        November 2023 9:00 AM - 11:59 AM       28445
##  3 member        November 2023 12:00 PM - 2:59 PM       34884
##  4 member        November 2023 3:00 PM - 4:59 PM        34292
##  5 member        November 2023 5:00 PM - 7:59 PM        44386
##  6 member        November 2023 8:00 PM - 11:59 PM       18120
##  7 member        November 2023 12:00 AM - 5:59 AM        5413
##  8 member        December 2023 6:00 AM - 8:59 AM        21360
##  9 member        December 2023 9:00 AM - 11:59 AM       18912
## 10 member        December 2023 12:00 PM - 2:59 PM       23406
## # ℹ 158 more rows
…
cyclistic_total_rides_by_month_percentage <- cyclistic %>%
  group_by(member_casual) %>%
  mutate(total_rides = sum(ride_count)) %>%
  ungroup() %>% 
  group_by(month, member_casual) %>%
  summarize(
    ride_count = sum(ride_count),
    total_rides = first(total_rides),
    percentage = (ride_count / total_rides) * 100,
    .groups = "drop")

print(cyclistic_total_rides_by_month_percentage)

## # A tibble: 24 × 5
##    month         member_casual ride_count total_rides percentage
##    <fct>         <fct>              <int>       <int>      <dbl>
##  1 November 2023 member            199132     2688973       7.41
##  2 November 2023 casual             71067     1491400       4.77
##  3 December 2023 member            127876     2688973       4.76
##  4 December 2023 casual             36155     1491400       2.42
##  5 January 2024  member             93550     2688973       3.48
##  6 January 2024  casual             17373     1491400       1.16
##  7 February 2024 member            144471     2688973       5.37
##  8 February 2024 casual             37619     1491400       2.52
##  9 March 2024    member            164709     2688973       6.13
## 10 March 2024    casual             61805     1491400       4.14
## # ℹ 14 more rows
…
Code Chunk 3-3-2-1:

cyclistic_total_rides_by_month_delta_percentage <- cyclistic %>%
  group_by(month, member_casual) %>%
  summarize(total_rides = sum(ride_count), .groups = "drop") %>%
  group_by(member_casual) %>%
  mutate(delta_rides = total_rides - lag(total_rides)) %>%
  mutate(delta_percentage = (delta_rides/lag(total_rides)) * 100) %>%
  filter(!is.na(delta_percentage))

print(cyclistic_total_rides_by_month_delta_percentage)

## # A tibble: 22 × 5
## # Groups:   member_casual [2]
##    month         member_casual total_rides delta_rides delta_percentage
##    <fct>         <fct>               <int>       <int>            <dbl>
##  1 December 2023 member             127876      -71256            -35.8
##  2 December 2023 casual              36155      -34912            -49.1
##  3 January 2024  member              93550      -34326            -26.8
##  4 January 2024  casual              17373      -18782            -51.9
##  5 February 2024 member             144471       50921             54.4
##  6 February 2024 casual              37619       20246            117. 
##  7 March 2024    member             164709       20238             14.0
##  8 March 2024    casual              61805       24186             64.3
##  9 April 2024    member             200342       35633             21.6
## 10 April 2024    casual              92244       30439             49.3
## # ℹ 12 more rows
…
Then, I visualized this data as a line graph to show the trend in
average ride duration over time.

Code Chunk 3-4-1-1:

cyclistic_mean_ride_length_month <- cyclistic %>%
  group_by(month, member_casual) %>%
  summarize(mean_ride_length_min = (sum(sum_ride_length_sec) / sum(ride_count)) /
              60,
            .groups = "drop")

print(cyclistic_mean_ride_length_month)

## # A tibble: 24 × 3
##    month         member_casual mean_ride_length_min
##    <fct>         <fct>                        <dbl>
##  1 November 2023 member                        11.2
##  2 November 2023 casual                        18.1
##  3 December 2023 member                        11.0
##  4 December 2023 casual                        16.8
##  5 January 2024  member                        11.9
##  6 January 2024  casual                        15.8
##  7 February 2024 member                        11.9
##  8 February 2024 casual                        20.1
##  9 March 2024    member                        11.6
## 10 March 2024    casual                        22.4
## # ℹ 14 more rows
…
cyclistic_histogram_month <- cyclistic %>%
  group_by(month, member_casual) %>%
  mutate(total_rides = sum(ride_count)) %>%
  ungroup() %>% 
  group_by(month, member_casual, length_distro_min) %>%
  summarise(
    ride_count = sum(ride_count),
    total_rides = first(total_rides),
    percentage = (ride_count / total_rides) * 100,
    .groups = "drop"
  )

print(cyclistic_histogram_month)

## # A tibble: 168 × 6
##    month       member_casual length_distro_min ride_count total_rides percentage
##    <fct>       <fct>         <fct>                  <int>       <int>      <dbl>
##  1 November 2… member        0 - 10                132829      199132     66.7  
##  2 November 2… member        11 - 20                45132      199132     22.7  
##  3 November 2… member        21 - 30                13087      199132      6.57 
##  4 November 2… member        31 - 40                 5023      199132      2.52 
##  5 November 2… member        41 - 50                 1784      199132      0.896
##  6 November 2… member        51 - 60                  537      199132      0.270
##  7 November 2… member        60+                      740      199132      0.372
##  8 November 2… casual        0 - 10                 38712       71067     54.5  
##  9 November 2… casual        11 - 20                17758       71067     25.0  
## 10 November 2… casual        21 - 30                 6401       71067      9.01 
## # ℹ 158 more rows
…
cyclistic_histogram_LTM_day_type <- cyclistic %>%
  group_by(day_type, member_casual) %>%
  mutate(total_rides = sum(ride_count)) %>%
  ungroup() %>% 
  group_by(member_casual, day_type, length_distro_min) %>%
  summarise(
    ride_count = sum(ride_count),
    total_rides = first(total_rides),
    percentage = (ride_count / total_rides) * 100,
    .groups = "drop"
  )

print(cyclistic_histogram_LTM_day_type)

## # A tibble: 28 × 6
##    member_casual day_type length_distro_min ride_count total_rides percentage
##    <fct>         <fct>    <fct>                  <int>       <int>      <dbl>
##  1 member        weekday  0 - 10               1285960     2065791     62.3  
##  2 member        weekday  11 - 20               513751     2065791     24.9  
##  3 member        weekday  21 - 30               160743     2065791      7.78 
##  4 member        weekday  31 - 40                64713     2065791      3.13 
##  5 member        weekday  41 - 50                23610     2065791      1.14 
##  6 member        weekday  51 - 60                 7326     2065791      0.355
##  7 member        weekday  60+                     9688     2065791      0.469
##  8 member        weekend  0 - 10                344467      623182     55.3  
##  9 member        weekend  11 - 20               164587      623182     26.4  
## 10 member        weekend  21 - 30                61741      623182      9.91 
## # ℹ 18 more rows
…
cyclistic_median_month_percentiles <- cyclistic_median_month_25 %>%
  left_join(cyclistic_median_month, by = c("month", "member_casual")) %>%
  left_join(cyclistic_median_month_75, by = c("month", "member_casual")) %>%
  left_join(cyclistic_median_month_90, by = c("month", "member_casual")) %>% 
  rename(
    median_25th = median.x,
    median_50th = median.y,
    median_75th = median.x.x,
    median_90th = median.y.y
  )
print(cyclistic_median_month_percentiles)

## # A tibble: 24 × 6
##    month         member_casual median_25th median_50th median_75th median_90th
##    <fct>         <fct>               <dbl>       <dbl>       <dbl>       <dbl>
##  1 November 2023 member               3.75        7.50        11.9        21.1
##  2 November 2023 casual               4.59        9.18        13.6        31.2
##  3 December 2023 member               3.67        7.33        11.8        13.4
##  4 December 2023 casual               4.24        8.47        12.9        21.8
##  5 January 2024  member               3.54        7.08        11.5        13.1
##  6 January 2024  casual               3.74        7.47        11.9        21.3
##  7 February 2024 member               3.81        7.62        12.1        21.2
##  8 February 2024 casual               4.70        9.40        13.8        31.4
##  9 March 2024    member               3.85        7.70        12.1        21.2
## 10 March 2024    casual               5.51       11.7         21.5        41.2
## # ℹ 14 more rows

Code Chunk 3-4-6-5:

cyclistic_median_month_percentiles_long <- cyclistic_median_month_percentiles %>%
  pivot_longer(
    cols = starts_with("median"),
    names_to = "percentile",
    values_to = "median"
  )

print(cyclistic_median_month_percentiles_long)

## # A tibble: 96 × 4
##    month         member_casual percentile  median
##    <fct>         <fct>         <chr>        <dbl>
##  1 November 2023 member        median_25th   3.75
##  2 November 2023 member        median_50th   7.50
##  3 November 2023 member        median_75th  11.9 
##  4 November 2023 member        median_90th  21.1 
##  5 November 2023 casual        median_25th   4.59
##  6 November 2023 casual        median_50th   9.18
##  7 November 2023 casual        median_75th  13.6 
##  8 November 2023 casual        median_90th  31.2 
##  9 December 2023 member        median_25th   3.67
## 10 December 2023 member        median_50th   7.33
## # ℹ 86 more rows
…
cyclistic_bike_pref <- cyclistic %>%
  group_by(member_casual, month) %>%
  mutate(total_rides = sum(ride_count)) %>%
  ungroup() %>% 
  group_by(month, member_casual, rideable_type) %>%
  summarise(
    ride_count = sum(ride_count),
    total_rides = first(total_rides),
    percentage = (ride_count / total_rides) * 100,
    .groups = "drop"
  )

print(cyclistic_bike_pref)

## # A tibble: 48 × 6
##    month         member_casual rideable_type ride_count total_rides percentage
##    <fct>         <fct>         <fct>              <int>       <int>      <dbl>
##  1 November 2023 member        classic_bike      131410      199132       66.0
##  2 November 2023 member        electric_bike      67722      199132       34.0
##  3 November 2023 casual        classic_bike       41737       71067       58.7
##  4 November 2023 casual        electric_bike      29330       71067       41.3
##  5 December 2023 member        classic_bike       82732      127876       64.7
##  6 December 2023 member        electric_bike      45144      127876       35.3
##  7 December 2023 casual        classic_bike       20071       36155       55.5
##  8 December 2023 casual        electric_bike      16084       36155       44.5
##  9 January 2024  member        classic_bike       64609       93550       69.1
## 10 January 2024  member        electric_bike      28941       93550       30.9
## # ℹ 38 more rows
…
